…
create data frame
-----------------

``` r
problem2_df = tibble(
  x = rnorm(1000),
  y= rnorm(1000),
  vec_indicator = output_column (x+y > 0), 
  vec_numeric  = as.numeric(vec_indicator),
  vec_factor = as.factor(vec_indicator))
problem2_df
```

    ## # A tibble: 1,000 x 5
    ##          x       y vec_indicator vec_numeric vec_factor
    ##      <dbl>   <dbl> <lgl>               <dbl> <fct>     
    ##  1  0.0335 -0.951  FALSE                   0 FALSE     
    ##  2  0.212   0.611  TRUE                    1 TRUE      
    ##  3  0.730   0.597  TRUE                    1 TRUE      
    ##  4  1.07   -1.05   TRUE                    1 TRUE      
    ##  5 -1.46   -0.0796 FALSE                   0 FALSE     
    ##  6  0.457  -0.273  TRUE                    1 TRUE      
    ##  7  0.0921  1.72   TRUE                    1 TRUE      
    ##  8 -1.26    1.02   FALSE                   0 FALSE     
    ##  9 -0.709  -0.406  FALSE                   0 FALSE     
    ## 10 -1.52   -0.879  FALSE                   0 FALSE     
    ## # ... with 990 more rows
…
